{
  "type": "origins:action_over_time",
  "interval": 20,
  "entity_action": {
    "type": "origins:if_else",
    "condition": {
      "type": "origins:equipped_item",
      "equipment_slot": "mainhand",
      "item_condition": {
        "type": "origins:and",
        "conditions": [
          {
            "type": "origins:ingredient",
            "ingredient": {
              "item": "minecraft:leather_helmet"
            }
          },
          {
            "type": "origins:has_power",
            "slot": "head",
            "power": "origins:overlay",
            "inverted": true
          }
        ]
      }
    },
    "if_action": {
      "type": "origins:equipped_item_action",
      "equipment_slot": "mainhand",
      "action": {
        "type": "origins:modify",
        "modifier": "origins:add_power"
      }
    }

  }
}