{
	"type": "origins:action_over_time",
	"interval": 1,

	"rising_action": {
		"type": "origins:execute_command",
		"command": "tellraw @s \"You are now within a six blocks radius of a torch\""
	},

	"falling_action": {
		"type": "origins:execute_command",
		"command": "tellraw @s \"You are now further than a radius of six blocks from any torch\""
	},

	"condition": {
		"type": "origins:block_in_radius",
		"radius": 6,
		"shape": "sphere",
		"block_condition": {
			"type": "origins:or",
			"conditions": [
				{
					"type": "origins:block",
					"block": "minecraft:torch"
				},
				{
					"type": "origins:block",
					"block": "minecraft:wall_torch"
				}
			]
		}
	}
}