{
  "type": "origins:multiple",
  "hidden": true,
  "overlay": {
    "type": "origins:overlay",
    "hidden": true,
    "texture": "minecraft:textures/misc/nausea.png",
    "red": 0.2,
    "green": 0.4,
    "blue": 0.2,
    "strength": 0.7,
    "draw_mode": "nausea",
    "draw_phase": "above_hud",
    "visible_in_third_person": true,
    "hide_with_hud": true,
    "condition": {
      "type": "origins:and",
      "conditions": [
        {
          "type": "origins:power_active",
          "power": "origins:phantomize"
        },
        {
          "type": "origins:food_level",
          "comparison": ">",
          "compare_to": 10
        }
      ]
    }
  }
}